{
    "docs": [
        {
            "_id": "61e806b8b505940285fc73dd",
            "fecha": "2024-08-31T00:00:00.000Z",
            "id_cli": "61e7f172b505940285fc73af",
            "nov_1": "Cambio de placa",
            "nov_2": "",
            "nov_3": "",
            "des": "",
            "lat": "",
            "lng": "",
            "n_bar": 1,
            "__v": 0
        },
        {
            "_id": "61e806b8b505940285fc73de",
            "fecha": "2022-01-20T00:00:00.000Z",
            "id_cli": "61e7f172b505940285fc73af",
            "nov_1": "S/N",
            "nov_2": "",
            "nov_3": "",
            "des": "",
            "lat": "",
            "lng": "",
            "n_bar": 2,
            "__v": 0
        },
        {
            "_id": "61e806b8b505940285fc73df",
            "fecha": "2022-01-20T00:00:00.000Z",
            "id_cli": "61e7f172b505940285fc73af",
            "nov_1": "S/N",
            "nov_2": "",
            "nov_3": "",
            "des": "",
            "lat": "",
            "lng": "",
            "n_bar": 3,
            "__v": 0
        },
        {
            "_id": "61e806b8b505940285fc73e0",
            "fecha": "2022-01-20T00:00:00.000Z",
            "id_cli": "61e7f172b505940285fc73af",
            "nov_1": "S/N",
            "nov_2": "",
            "nov_3": "",
            "des": "",
            "lat": "",
            "lng": "",
            "n_bar": 4,
            "__v": 0
        },
        {
            "_id": "61e806b8b505940285fc73e1",
            "fecha": "2022-01-20T00:00:00.000Z",
            "id_cli": "61e7f172b505940285fc73af",
            "nov_1": "S/N",
            "nov_2": "",
            "nov_3": "",
            "des": "",
            "lat": "",
            "lng": "",
            "n_bar": 5,
            "__v": 0
        },
        {
            "_id": "61e806b8b505940285fc73e2",
            "fecha": "2022-01-20T00:00:00.000Z",
            "id_cli": "61e7f172b505940285fc73af",
            "nov_1": "S/N",
            "nov_2": "",
            "nov_3": "",
            "des": "",
            "lat": "",
            "lng": "",
            "n_bar": 6,
            "__v": 0
        },
        {
            "_id": "61e806b8b505940285fc73e3",
            "fecha": "2022-01-20T00:00:00.000Z",
            "id_cli": "61e7f172b505940285fc73af",
            "nov_1": "S/N",
            "nov_2": "",
            "nov_3": "",
            "des": "",
            "lat": "",
            "lng": "",
            "n_bar": 7,
            "__v": 0
        },
        {
            "_id": "61e806b8b505940285fc73e4",
            "fecha": "2022-01-20T00:00:00.000Z",
            "id_cli": "61e7f172b505940285fc73af",
            "nov_1": "S/N",
            "nov_2": "",
            "nov_3": "",
            "des": "",
            "lat": "",
            "lng": "",
            "n_bar": 8,
            "__v": 0
        },
        {
            "_id": "61e806b8b505940285fc73e5",
            "fecha": "2022-01-20T00:00:00.000Z",
            "id_cli": "61e7f172b505940285fc73af",
            "nov_1": "S/N",
            "nov_2": "",
            "nov_3": "",
            "des": "",
            "lat": "",
            "lng": "",
            "n_bar": 9,
            "__v": 0
        },
        {
            "_id": "61e806b8b505940285fc73e6",
            "fecha": "2022-01-20T00:00:00.000Z",
            "id_cli": "61e7f172b505940285fc73af",
            "nov_1": "S/N",
            "nov_2": "",
            "nov_3": "",
            "des": "",
            "lat": "",
            "lng": "",
            "n_bar": 10,
            "__v": 0
        }
    ],
    "totalDocs": 44414,
    "limit": 10,
    "totalPages": 4442,
    "page": 1,
    "pagingCounter": 1,
    "hasPrevPage": false,
    "hasNextPage": true,
    "prevPage": null,
    "nextPage": 2
}