{
    "docs": [
        {
            "_id": "61eed935245187232a0f8f95",
            "fecha": "2022-01-19T00:00:00.000Z",
            "id_cli": "61e7f3a9b505940285fc73b1",
            "controlado": true,
            "cambio_placa": true,
            "verificacion": false,
            "equipo_apagado": false,
            "sector": "crudo",
            "mosca_domestica": 3,
            "mosca_carne": null,
            "mosca_fruta": null,
            "mosca_humedad": null,
            "mosquito": null,
            "insecto_ambiente": 31,
            "polilla": 3,
            "des": "",
            "lat": "",
            "lng": "",
            "n_bar": 1,
            "__v": 0
        },
        {
            "_id": "61eed935245187232a0f8f96",
            "fecha": "2022-01-19T00:00:00.000Z",
            "id_cli": "61e7f3a9b505940285fc73b1",
            "controlado": true,
            "cambio_placa": true,
            "verificacion": false,
            "equipo_apagado": false,
            "sector": "deposito frio",
            "mosca_domestica": 3,
            "mosca_carne": null,
            "mosca_fruta": null,
            "mosca_humedad": null,
            "mosquito": 2,
            "insecto_ambiente": 18,
            "polilla": 6,
            "des": "",
            "lat": "",
            "lng": "",
            "n_bar": 2,
            "__v": 0
        },
        {
            "_id": "61eed935245187232a0f8f97",
            "fecha": "2022-01-19T00:00:00.000Z",
            "id_cli": "61e7f3a9b505940285fc73b1",
            "controlado": true,
            "cambio_placa": true,
            "verificacion": false,
            "equipo_apagado": false,
            "sector": "deposito frio",
            "mosca_domestica": 6,
            "mosca_carne": null,
            "mosca_fruta": null,
            "mosca_humedad": null,
            "mosquito": 0,
            "insecto_ambiente": 21,
            "polilla": 0,
            "des": "",
            "lat": "",
            "lng": "",
            "n_bar": 3,
            "__v": 0
        },
        {
            "_id": "61eed935245187232a0f8f98",
            "fecha": "2022-01-19T00:00:00.000Z",
            "id_cli": "61e7f3a9b505940285fc73b1",
            "controlado": true,
            "cambio_placa": true,
            "verificacion": false,
            "equipo_apagado": false,
            "sector": "deposito frio",
            "mosca_domestica": 2,
            "mosca_carne": null,
            "mosca_fruta": null,
            "mosca_humedad": null,
            "mosquito": null,
            "insecto_ambiente": 30,
            "polilla": 2,
            "des": "",
            "lat": "",
            "lng": "",
            "n_bar": 4,
            "__v": 0
        },
        {
            "_id": "61f008a2245187232a0f9506",
            "fecha": "2022-01-19T00:00:00.000Z",
            "id_cli": "61e7f3a9b505940285fc73b1",
            "controlado": true,
            "cambio_placa": true,
            "verificacion": false,
            "equipo_apagado": false,
            "sector": "CRUDO",
            "mosca_domestica": 8,
            "mosca_carne": null,
            "mosca_fruta": null,
            "mosca_humedad": null,
            "mosquito": null,
            "insecto_ambiente": 31,
            "polilla": 3,
            "des": "",
            "lat": "",
            "lng": "",
            "n_bar": 1,
            "__v": 0
        },
        {
            "_id": "61f008a2245187232a0f9507",
            "fecha": "2022-01-19T00:00:00.000Z",
            "id_cli": "61e7f3a9b505940285fc73b1",
            "controlado": true,
            "cambio_placa": true,
            "verificacion": false,
            "equipo_apagado": false,
            "sector": "DEP.FRIO",
            "mosca_domestica": 1,
            "mosca_carne": 0,
            "mosca_fruta": 0,
            "mosca_humedad": 0,
            "mosquito": 2,
            "insecto_ambiente": 18,
            "polilla": 6,
            "des": "",
            "lat": "",
            "lng": "",
            "n_bar": 2,
            "__v": 0
        },
        {
            "_id": "61f008a2245187232a0f9508",
            "fecha": "2022-01-19T00:00:00.000Z",
            "id_cli": "61e7f3a9b505940285fc73b1",
            "controlado": true,
            "cambio_placa": true,
            "verificacion": false,
            "equipo_apagado": false,
            "sector": "DEP.FRIO",
            "mosca_domestica": 6,
            "mosca_carne": 0,
            "mosca_fruta": 0,
            "mosca_humedad": 0,
            "mosquito": 0,
            "insecto_ambiente": 21,
            "polilla": 0,
            "des": "",
            "lat": "",
            "lng": "",
            "n_bar": 3,
            "__v": 0
        },
        {
            "_id": "61f008a2245187232a0f9509",
            "fecha": "2022-01-19T00:00:00.000Z",
            "id_cli": "61e7f3a9b505940285fc73b1",
            "controlado": true,
            "cambio_placa": true,
            "verificacion": false,
            "equipo_apagado": false,
            "sector": "DEP.FRIO",
            "mosca_domestica": 2,
            "mosca_carne": 0,
            "mosca_fruta": 0,
            "mosca_humedad": 0,
            "mosquito": 0,
            "insecto_ambiente": 36,
            "polilla": 2,
            "des": "",
            "lat": "",
            "lng": "",
            "n_bar": 4,
            "__v": 0
        },
        {
            "_id": "61f92d2af06144714f68b1fe",
            "fecha": "2022-01-27T00:00:00.000Z",
            "id_cli": "61e7f499b505940285fc73b3",
            "controlado": true,
            "cambio_placa": true,
            "verificacion": false,
            "equipo_apagado": false,
            "sector": "BAÑOS",
            "mosca_domestica": 3,
            "mosca_carne": null,
            "mosca_fruta": null,
            "mosca_humedad": null,
            "mosquito": null,
            "insecto_ambiente": 20,
            "polilla": 1,
            "des": "",
            "lat": "",
            "lng": "",
            "n_bar": 1,
            "__v": 0
        },
        {
            "_id": "61f92d2af06144714f68b1ff",
            "fecha": "2022-01-27T00:00:00.000Z",
            "id_cli": "61e7f499b505940285fc73b3",
            "controlado": true,
            "cambio_placa": true,
            "verificacion": false,
            "equipo_apagado": false,
            "sector": "COMEDOR",
            "mosca_domestica": 1,
            "mosca_carne": null,
            "mosca_fruta": null,
            "mosca_humedad": null,
            "mosquito": null,
            "insecto_ambiente": 28,
            "polilla": 0,
            "des": "",
            "lat": "",
            "lng": "",
            "n_bar": 2,
            "__v": 0
        }
    ],
    "totalDocs": 5288,
    "limit": 10,
    "totalPages": 529,
    "page": 1,
    "pagingCounter": 1,
    "hasPrevPage": false,
    "hasNextPage": true,
    "prevPage": null,
    "nextPage": 2
}